\relax 
\citation{CASB350,EU2050,Jacobson2015}
\citation{Varaiya2011}
\citation{Hong2014}
\citation{Dunn2011}
\citation{Nykvist2015}
\citation{CA1.3GWStor}
\citation{NJRESIP}
\citation{gtmR2015Q3Stor}
\citation{QRsimpleStorPes2012}
\citation{MITrampStor}
\citation{MITrampStor}
\citation{Secomandi2010}
\citation{SuEGTPS,RLDSACC}
\citation{BitarRACC_colocated,Powell}
\citation{IBMload,DataCenter}
\citation{StorDRLongbo}
\@writefile{toc}{\contentsline {section}{\numberline {1}Introduction}{1}}
\@writefile{toc}{\contentsline {paragraph}{background:renewable and storage}{1}}
\@writefile{toc}{\contentsline {paragraph}{background:demand charge now and future}{1}}
\@writefile{toc}{\contentsline {paragraph}{literature}{1}}
\@writefile{toc}{\contentsline {paragraph}{contribution}{1}}
\@writefile{toc}{\contentsline {paragraph}{organization}{1}}
\@writefile{toc}{\contentsline {paragraph}{old materials}{1}}
\citation{XieEtAlWindStorMPC}
\citation{NRELStorValue2013}
\citation{Qin2014}
\citation{Lu2013}
\citation{Chau2015}
\citation{W99}
\citation{routing1,routing2,routing3}
\citation{routing3}
\citation{DJ12}
\citation{CHK15,BCGNN14,ACP14}
\citation{inventory1,inventory2,inventory3,inventory4}
\citation{BN09}
\citation{secretary}
\citation{decaysurvey}
\citation{pricing1,pricing2}
\@writefile{toc}{\contentsline {subsection}{\numberline {1.1}Related Literature}{2}}
\newlabel{sec:lit}{{1.1}{2}}
\@writefile{toc}{\contentsline {section}{\numberline {2}Problem Formulation}{2}}
\newlabel{stordyn}{{2}{3}}
\newlabel{obj}{{4}{3}}
\newlabel{opt:ST}{{5}{3}}
\@writefile{toc}{\contentsline {section}{\numberline {3}Constant Price Case}{4}}
\newlabel{thm:useless}{{1}{4}}
\@writefile{toc}{\contentsline {paragraph}{Why is the information pattern equavilent to the plan-ahead pattern}{4}}
\@writefile{toc}{\contentsline {paragraph}{Why this result is intuitive}{4}}
\newlabel{lemma:flat}{{2}{4}}
\newlabel{corollary:flat}{{3}{5}}
\newlabel{u:flat}{{6}{5}}
\newlabel{opt:CE}{{7}{5}}
\@writefile{toc}{\contentsline {section}{\numberline {4}Theorems}{5}}
\newlabel{corollary:equivalency}{{5}{6}}
\newlabel{opt:CE2}{{8}{6}}
\newlabel{opt:ST2}{{9}{6}}
\newlabel{lemma:monotone}{{6}{7}}
\newlabel{lemma:GeneralizedMonotone}{{7}{7}}
\newlabel{lemma:boundary}{{8}{8}}
\newlabel{thm:fixedOptimal}{{10}{10}}
\bibstyle{IEEEtran}
\bibdata{refs}
\bibcite{CASB350}{1}
\bibcite{EU2050}{2}
\bibcite{Jacobson2015}{3}
\bibcite{Varaiya2011}{4}
\bibcite{Hong2014}{5}
\@writefile{toc}{\contentsline {paragraph}{Construction of optimal CE solution}{11}}
\@writefile{loa}{\contentsline {algorithm}{\numberline {1}{\ignorespaces Stochastic Peak Shaving\relax }}{11}}
\providecommand*\caption@xref[2]{\@setref\relax\@undefined{#1}}
\newlabel{improved}{{1}{11}}
\newlabel{EstimateMean}{{9}{11}}
\bibcite{Dunn2011}{6}
\bibcite{Nykvist2015}{7}
\bibcite{CA1.3GWStor}{8}
\bibcite{NJRESIP}{9}
\bibcite{gtmR2015Q3Stor}{10}
\bibcite{QRsimpleStorPes2012}{11}
\bibcite{MITrampStor}{12}
\bibcite{Secomandi2010}{13}
\@writefile{loa}{\contentsline {algorithm}{\numberline {2}{\ignorespaces CE Peak Charging Finder\relax }}{12}}
\newlabel{maximumfinder}{{2}{12}}
\bibcite{SuEGTPS}{14}
\bibcite{RLDSACC}{15}
\bibcite{BitarRACC_colocated}{16}
\bibcite{Powell}{17}
\bibcite{IBMload}{18}
\bibcite{DataCenter}{19}
\bibcite{StorDRLongbo}{20}
\bibcite{XieEtAlWindStorMPC}{21}
\bibcite{NRELStorValue2013}{22}
\bibcite{Qin2014}{23}
\bibcite{Lu2013}{24}
\bibcite{Chau2015}{25}
\bibcite{W99}{26}
\bibcite{routing1}{27}
\bibcite{routing2}{28}
\bibcite{routing3}{29}
\bibcite{DJ12}{30}
\bibcite{CHK15}{31}
\bibcite{BCGNN14}{32}
\bibcite{ACP14}{33}
\bibcite{inventory1}{34}
\bibcite{inventory2}{35}
\bibcite{inventory3}{36}
\bibcite{inventory4}{37}
\bibcite{BN09}{38}
\bibcite{secretary}{39}
\bibcite{decaysurvey}{40}
\bibcite{pricing1}{41}
\bibcite{pricing2}{42}
