This is BibTeX, Version 0.99d (TeX Live 2013)
Capacity: max_strings=35307, hash_size=35307, hash_prime=30011
The top-level auxiliary file: /Users/jqin/Dropbox-personal/Dropbox/4.CDC16.Storage+PeakDemandCharge/TexFiles/.texpadtmp/main.aux
The style file: IEEEtran.bst
Reallocated singl_function (elt_size=4) to 100 items from 50.
Reallocated singl_function (elt_size=4) to 100 items from 50.
Reallocated singl_function (elt_size=4) to 100 items from 50.
Reallocated wiz_functions (elt_size=4) to 6000 items from 3000.
Reallocated singl_function (elt_size=4) to 100 items from 50.
Database file #1: ../refs.bib
Repeated entry---line 1111 of file ../refs.bib
 : @inproceedings{DJ12
 :                    ,
I'm skipping whatever remains of this entry
Repeated entry---line 1129 of file ../refs.bib
 : @inproceedings{routing3
 :                        ,
I'm skipping whatever remains of this entry
Repeated entry---line 1145 of file ../refs.bib
 : @article{routing2
 :                  ,
I'm skipping whatever remains of this entry
Repeated entry---line 1154 of file ../refs.bib
 : @article{routing1
 :                  ,
I'm skipping whatever remains of this entry
Repeated entry---line 1174 of file ../refs.bib
 : @article{decaysurvey
 :                     ,
I'm skipping whatever remains of this entry
Repeated entry---line 1195 of file ../refs.bib
 : @inproceedings{pricing2
 :                        ,
I'm skipping whatever remains of this entry
Repeated entry---line 1206 of file ../refs.bib
 : @inproceedings{pricing1
 :                        ,
I'm skipping whatever remains of this entry
Repeated entry---line 1224 of file ../refs.bib
 : @inproceedings{secretary
 :                         ,
I'm skipping whatever remains of this entry
Repeated entry---line 1240 of file ../refs.bib
 : @inproceedings{inventory4
 :                          ,
I'm skipping whatever remains of this entry
Repeated entry---line 1256 of file ../refs.bib
 : @inproceedings{inventory3
 :                          ,
I'm skipping whatever remains of this entry
Repeated entry---line 1271 of file ../refs.bib
 : @article{inventory2
 :                    ,
I'm skipping whatever remains of this entry
Repeated entry---line 1281 of file ../refs.bib
 : @article{inventory1
 :                    ,
I'm skipping whatever remains of this entry
Repeated entry---line 1320 of file ../refs.bib
 : @article{BN09
 :              ,
I'm skipping whatever remains of this entry
-- IEEEtran.bst version 1.13 (2008/09/30) by Michael Shell.
-- http://www.michaelshell.org/tex/ieeetran/bibtex/
-- See the "IEEEtran_bst_HOWTO.pdf" manual for usage information.
Warning--empty journal in Chau2015
Warning--empty journal in routing2

Done.
You've used 42 entries,
            4039 wiz_defined-function locations,
            1108 strings with 16728 characters,
and the built_in function-call counts, 32270 in all, are:
= -- 2680
> -- 738
< -- 257
+ -- 407
- -- 126
* -- 1644
:= -- 5007
add.period$ -- 90
call.type$ -- 42
change.case$ -- 47
chr.to.int$ -- 597
cite$ -- 44
duplicate$ -- 2292
empty$ -- 2538
format.name$ -- 160
if$ -- 7366
int.to.chr$ -- 0
int.to.str$ -- 42
missing$ -- 408
newline$ -- 201
num.names$ -- 41
pop$ -- 916
preamble$ -- 1
purify$ -- 0
quote$ -- 2
skip$ -- 2478
stack$ -- 0
substring$ -- 1450
swap$ -- 1909
text.length$ -- 58
text.prefix$ -- 0
top$ -- 5
type$ -- 42
warning$ -- 2
while$ -- 138
width$ -- 44
write$ -- 498
(There were 13 error messages)
