\relax 
\providecommand\hyper@newdestlabel[2]{}
\providecommand\HyperFirstAtBeginDocument{\AtBeginDocument}
\HyperFirstAtBeginDocument{\ifx\hyper@anchor\@undefined
\global\let\oldcontentsline\contentsline
\gdef\contentsline#1#2#3#4{\oldcontentsline{#1}{#2}{#3}}
\global\let\oldnewlabel\newlabel
\gdef\newlabel#1#2{\newlabelxx{#1}#2}
\gdef\newlabelxx#1#2#3#4#5#6{\oldnewlabel{#1}{{#2}{#3}}}
\AtEndDocument{\ifx\hyper@anchor\@undefined
\let\contentsline\oldcontentsline
\let\newlabel\oldnewlabel
\fi}
\fi}
\global\let\hyper@last\relax 
\gdef\HyperFirstAtBeginDocument#1{#1}
\providecommand\HyField@AuxAddToFields[1]{}
\providecommand\HyField@AuxAddToCoFields[2]{}
\citation{CASB350}
\citation{EU2050}
\citation{Jacobson2015}
\citation{Varaiya2011}
\citation{Hong2014}
\citation{Dunn2011}
\citation{Nykvist2015}
\citation{CA1.3GWStor}
\citation{NJRESIP}
\citation{gtmR2015Q3Stor}
\@writefile{toc}{\contentsline {section}{\numberline {1}Introduction}{1}{section.1}}
\citation{QRsimpleStorPes2012}
\citation{MITrampStor}
\citation{SuEGTPS}
\citation{RLDSACC}
\citation{BitarRACC_colocated}
\citation{Powell}
\citation{IBMload}
\citation{DataCenter}
\citation{StorDRLongbo}
\citation{Xu2014}
\citation{Qin2015}
\citation{Neubauer2015}
\@writefile{toc}{\contentsline {subsection}{\numberline {1.1}Organization}{3}{subsection.1.1}}
\@writefile{toc}{\contentsline {subsection}{\numberline {1.2}Notation}{4}{subsection.1.2}}
\@writefile{toc}{\contentsline {section}{\numberline {2}Problem Formulation}{4}{section.2}}
\newlabel{stordyn}{{2}{4}{Problem Formulation}{equation.2.2}{}}
\citation{qin2012optimal}
\citation{MITrampStor}
\newlabel{obj}{{5}{5}{Problem Formulation}{equation.2.5}{}}
\newlabel{opt:ST}{{6}{6}{Problem Formulation}{equation.2.6}{}}
\newlabel{opt:ST:c6}{{6f}{6}{Problem Formulation}{equation.2.6f}{}}
\@writefile{toc}{\contentsline {section}{\numberline {3}Perfectly Adequate Storage}{6}{section.3}}
\newlabel{sec:flat}{{3}{6}{Perfectly Adequate Storage}{section.3}{}}
\newlabel{lemma:non-optimal}{{1}{7}{Perfectly Adequate Storage}{lemma.1}{}}
\newlabel{thm:useless}{{1}{7}{Perfectly Adequate Storage}{theorem.1}{}}
\newlabel{u:flat}{{7}{8}{Perfectly adequate storage}{equation.3.7}{}}
\newlabel{corollary:flat}{{1}{8}{Perfectly Adequate Storage}{corollary.1}{}}
\newlabel{opt:CE}{{8}{8}{Perfectly Adequate Storage}{equation.3.8}{}}
\@writefile{toc}{\contentsline {section}{\numberline {4}Uniqueness Implies Certainty Equivalence}{9}{section.4}}
\@writefile{lof}{\contentsline {figure}{\numberline {1}{\ignorespaces Illustration of one optimal solution of certainty equivalent problem\relax }}{9}{figure.caption.1}}
\providecommand*\caption@xref[2]{\@setref\relax\@undefined{#1}}
\newlabel{fig:ce}{{1}{9}{Illustration of one optimal solution of certainty equivalent problem\relax }{figure.caption.1}{}}
\newlabel{def:pc}{{3}{10}{Peak cycles}{definition.3}{}}
\newlabel{def:pcs}{{4}{10}{Critical sub peak cycles}{definition.4}{}}
\newlabel{lemma:SuOpt}{{2}{11}{Uniqueness Implies Certainty Equivalence}{lemma.2}{}}
\newlabel{cor:NeNonOpt}{{2}{11}{Uniqueness Implies Certainty Equivalence}{corollary.2}{}}
\newlabel{thm:subset}{{2}{11}{Uniqueness Implies Certainty Equivalence}{theorem.2}{}}
\@writefile{toc}{\contentsline {section}{\numberline {5}Optimal Certainty Equivalent Control}{12}{section.5}}
\newlabel{sec:oce}{{5}{12}{Optimal Certainty Equivalent Control}{section.5}{}}
\newlabel{fig:cest}{{2a}{12}{Subfigure 2a}{subfigure.2.1}{}}
\newlabel{sub@fig:cest}{{(a)}{a}{Subfigure 2a\relax }{subfigure.2.1}{}}
\newlabel{fig:cestr}{{2b}{12}{Subfigure 2b}{subfigure.2.2}{}}
\newlabel{sub@fig:cestr}{{(b)}{b}{Subfigure 2b\relax }{subfigure.2.2}{}}
\newlabel{fig:cestb}{{2c}{12}{Subfigure 2c}{subfigure.2.3}{}}
\newlabel{sub@fig:cestb}{{(c)}{c}{Subfigure 2c\relax }{subfigure.2.3}{}}
\@writefile{lof}{\contentsline {figure}{\numberline {2}{\ignorespaces Illustration of CE optimal solution and stochastic optimal solution\relax }}{12}{figure.caption.2}}
\newlabel{fig:cests}{{2}{12}{Illustration of CE optimal solution and stochastic optimal solution\relax }{figure.caption.2}{}}
\@writefile{lof}{\contentsline {subfigure}{\numberline{(a)}{\ignorespaces {Forecasted load}}}{12}{subfigure.2.1}}
\@writefile{lof}{\contentsline {subfigure}{\numberline{(b)}{\ignorespaces {Actual load}}}{12}{subfigure.2.2}}
\@writefile{lof}{\contentsline {subfigure}{\numberline{(c)}{\ignorespaces {Battery status}}}{12}{subfigure.2.3}}
\newlabel{thm:NeOpt}{{3}{13}{Optimal Certainty Equivalent Control}{theorem.3}{}}
\newlabel{cor:CEtoSE}{{4}{13}{Optimal Certainty Equivalent Control}{corollary.4}{}}
\@writefile{loa}{\contentsline {algorithm}{\numberline {1}{\ignorespaces PeakFinder\relax }}{14}{algorithm.1}}
\newlabel{alg:PF}{{1}{14}{PeakFinder\relax }{algorithm.1}{}}
\newlabel{ce:solver}{{3}{14}{PeakFinder\relax }{algorithm.1}{}}
\@writefile{toc}{\contentsline {subsection}{\numberline {5.1}Decoupling of Optimal Control Sequence}{15}{subsection.5.1}}
\@writefile{toc}{\contentsline {subsection}{\numberline {5.2}Recursive Method to Determine All Optimal Control Actions for Stochastic Program}{15}{subsection.5.2}}
\newlabel{opt:CEL}{{9}{15}{Recursive Method to Determine All Optimal Control Actions for Stochastic Program}{equation.5.9}{}}
\newlabel{opt:CER}{{10}{16}{Recursive Method to Determine All Optimal Control Actions for Stochastic Program}{equation.5.10}{}}
\newlabel{lemma:Recursion}{{3}{16}{Recursive Method to Determine All Optimal Control Actions for Stochastic Program}{lemma.3}{}}
\@writefile{loa}{\contentsline {algorithm}{\numberline {2}{\ignorespaces STSolver\relax }}{17}{algorithm.2}}
\newlabel{alg:ST}{{2}{17}{STSolver\relax }{algorithm.2}{}}
\newlabel{EstimateMean}{{14}{17}{STSolver\relax }{algorithm.2}{}}
\citation{web:pge}
\citation{web:sce}
\@writefile{toc}{\contentsline {section}{\numberline {6}Experimental Results}{18}{section.6}}
\@writefile{lof}{\contentsline {figure}{\numberline {3}{\ignorespaces Forecast and true load for single customer\relax }}{19}{figure.caption.3}}
\newlabel{fig:load}{{3}{19}{Forecast and true load for single customer\relax }{figure.caption.3}{}}
\@writefile{lof}{\contentsline {figure}{\numberline {4}{\ignorespaces Net forecast load with battery control\relax }}{19}{figure.caption.4}}
\newlabel{fig:forecast}{{4}{19}{Net forecast load with battery control\relax }{figure.caption.4}{}}
\@writefile{lof}{\contentsline {figure}{\numberline {5}{\ignorespaces Net true load with battery control\relax }}{20}{figure.caption.5}}
\newlabel{fig:true}{{5}{20}{Net true load with battery control\relax }{figure.caption.5}{}}
\bibstyle{unsrt}
\bibdata{refs}
\bibcite{CASB350}{1}
\bibcite{EU2050}{2}
\bibcite{Jacobson2015}{3}
\bibcite{Varaiya2011}{4}
\bibcite{Hong2014}{5}
\@writefile{lof}{\contentsline {figure}{\numberline {6}{\ignorespaces Demand difference between the naive CE algorithm and the proposed optimal algorithm, versus the forecast error's standard deviation\relax }}{21}{figure.caption.6}}
\newlabel{fig:diff}{{6}{21}{Demand difference between the naive CE algorithm and the proposed optimal algorithm, versus the forecast error's standard deviation\relax }{figure.caption.6}{}}
\bibcite{Dunn2011}{6}
\bibcite{Nykvist2015}{7}
\bibcite{CA1.3GWStor}{8}
\bibcite{NJRESIP}{9}
\bibcite{gtmR2015Q3Stor}{10}
\bibcite{QRsimpleStorPes2012}{11}
\bibcite{MITrampStor}{12}
\bibcite{SuEGTPS}{13}
\bibcite{RLDSACC}{14}
\bibcite{BitarRACC_colocated}{15}
\bibcite{Powell}{16}
\bibcite{IBMload}{17}
\bibcite{DataCenter}{18}
\bibcite{StorDRLongbo}{19}
\bibcite{Xu2014}{20}
\bibcite{Qin2015}{21}
\bibcite{Neubauer2015}{22}
\bibcite{qin2012optimal}{23}
