\BOOKMARK [1][-]{section.1}{Introduction}{}% 1
\BOOKMARK [2][-]{subsection.1.1}{Organization}{section.1}% 2
\BOOKMARK [2][-]{subsection.1.2}{Notation}{section.1}% 3
\BOOKMARK [1][-]{section.2}{Problem Formulation}{}% 4
\BOOKMARK [1][-]{section.3}{Perfectly Adequate Storage}{}% 5
\BOOKMARK [1][-]{section.4}{Uniqueness Implies Certainty Equivalence}{}% 6
\BOOKMARK [1][-]{section.5}{Optimal Certainty Equivalent Control}{}% 7
\BOOKMARK [2][-]{subsection.5.1}{Decoupling of Optimal Control Sequence}{section.5}% 8
\BOOKMARK [2][-]{subsection.5.2}{Recursive Method to Determine All Optimal Control Actions for Stochastic Program}{section.5}% 9
\BOOKMARK [1][-]{section.6}{Experimental Results}{}% 10
