\relax 
\providecommand\hyper@newdestlabel[2]{}
\providecommand\HyperFirstAtBeginDocument{\AtBeginDocument}
\HyperFirstAtBeginDocument{\ifx\hyper@anchor\@undefined
\global\let\oldcontentsline\contentsline
\gdef\contentsline#1#2#3#4{\oldcontentsline{#1}{#2}{#3}}
\global\let\oldnewlabel\newlabel
\gdef\newlabel#1#2{\newlabelxx{#1}#2}
\gdef\newlabelxx#1#2#3#4#5#6{\oldnewlabel{#1}{{#2}{#3}}}
\AtEndDocument{\ifx\hyper@anchor\@undefined
\let\contentsline\oldcontentsline
\let\newlabel\oldnewlabel
\fi}
\fi}
\global\let\hyper@last\relax 
\gdef\HyperFirstAtBeginDocument#1{#1}
\providecommand\HyField@AuxAddToFields[1]{}
\providecommand\HyField@AuxAddToCoFields[2]{}
\citation{CASB350}
\citation{EU2050}
\citation{Jacobson2015}
\citation{Varaiya2011}
\citation{Hong2014}
\citation{Dunn2011}
\citation{Nykvist2015}
\citation{CA1.3GWStor}
\citation{NJRESIP}
\citation{gtmR2015Q3Stor}
\citation{QRsimpleStorPes2012}
\citation{MITrampStor}
\citation{SuEGTPS}
\citation{RLDSACC}
\citation{BitarRACC_colocated}
\citation{Powell}
\citation{IBMload}
\citation{DataCenter}
\citation{StorDRLongbo}
\citation{Xu2014}
\citation{Qin2015}
\citation{Neubauer2015}
\@writefile{toc}{\contentsline {section}{\numberline {I}Introduction}{1}{section.1}}
\citation{qin2012optimal}
\citation{MITrampStor}
\@writefile{toc}{\contentsline {subsection}{\numberline {I-A}Organization}{2}{subsection.1.1}}
\@writefile{toc}{\contentsline {subsection}{\numberline {I-B}Notation}{2}{subsection.1.2}}
\@writefile{toc}{\contentsline {section}{\numberline {II}Problem Formulation}{2}{section.2}}
\newlabel{stordyn}{{2}{2}{Problem Formulation}{equation.2.2}{}}
\newlabel{obj}{{5}{2}{Problem Formulation}{equation.2.5}{}}
\newlabel{opt:ST}{{6}{2}{Problem Formulation}{equation.2.6}{}}
\@writefile{toc}{\contentsline {section}{\numberline {III}Perfectly Adequate Storage}{3}{section.3}}
\newlabel{lemma:non-optimal}{{1}{3}{Perfectly Adequate Storage}{lemma.1}{}}
\newlabel{thm:useless}{{1}{3}{Perfectly Adequate Storage}{theorem.1}{}}
\newlabel{u:flat}{{7}{3}{Perfectly adequate storage}{equation.3.7}{}}
\newlabel{corollary:flat}{{1}{3}{Perfectly Adequate Storage}{corollary.1}{}}
\newlabel{opt:CE}{{8}{3}{Perfectly Adequate Storage}{equation.3.8}{}}
\@writefile{toc}{\contentsline {section}{\numberline {IV}Uniqueness Implies Certainty Equivalence}{3}{section.4}}
\newlabel{def:pc}{{3}{4}{Peak cycles}{definition.3}{}}
\newlabel{lemma:SuOpt}{{2}{4}{Uniqueness Implies Certainty Equivalence}{lemma.2}{}}
\newlabel{cor:NeNonOpt}{{2}{4}{Uniqueness Implies Certainty Equivalence}{corollary.2}{}}
\@writefile{toc}{\contentsline {subsection}{\numberline {IV-A}Optimal Control Action Sets Relationship}{4}{subsection.4.1}}
\newlabel{thm:subset}{{2}{4}{Optimal Control Action Sets Relationship}{theorem.2}{}}
\@writefile{toc}{\contentsline {subsection}{\numberline {IV-B}Special Case: Equality Between Two Optimal Control Action Sets}{4}{subsection.4.2}}
\@writefile{toc}{\contentsline {section}{\numberline {V}Optimal Control Actions for Arbitrary Capacity Constraints}{4}{section.5}}
\@writefile{toc}{\contentsline {subsection}{\numberline {V-A}Necessary Condition for Optimality of CE Program Control Sequence}{4}{subsection.5.1}}
\newlabel{thm:NeOpt}{{3}{4}{Necessary Condition for Optimality of CE Program Control Sequence}{theorem.3}{}}
\newlabel{cor:CEtoSE}{{4}{5}{Necessary Condition for Optimality of CE Program Control Sequence}{corollary.4}{}}
\@writefile{toc}{\contentsline {subsection}{\numberline {V-B}Find common control actions reaching maximum net demand}{5}{subsection.5.2}}
\@writefile{toc}{\contentsline {subsection}{\numberline {V-C}Decoupling of Optimal Control Sequence}{5}{subsection.5.3}}
\@writefile{loa}{\contentsline {algorithm}{\numberline {1}{\ignorespaces PeakFinder\relax }}{5}{algorithm.1}}
\providecommand*\caption@xref[2]{\@setref\relax\@undefined{#1}}
\newlabel{alg:PF}{{1}{5}{PeakFinder\relax }{algorithm.1}{}}
\@writefile{toc}{\contentsline {subsection}{\numberline {V-D}Recursive Method to Determine All Optimal Control Actions for Stochastic Program}{5}{subsection.5.4}}
\newlabel{opt:CEL}{{9}{5}{Recursive Method to Determine All Optimal Control Actions for Stochastic Program}{equation.5.9}{}}
\citation{??}
\citation{??}
\bibstyle{unsrt}
\bibdata{refs}
\bibcite{CASB350}{1}
\bibcite{EU2050}{2}
\bibcite{Jacobson2015}{3}
\bibcite{Varaiya2011}{4}
\bibcite{Hong2014}{5}
\bibcite{Dunn2011}{6}
\newlabel{opt:CER}{{10}{6}{Recursive Method to Determine All Optimal Control Actions for Stochastic Program}{equation.5.10}{}}
\newlabel{lemma:recursion}{{3}{6}{Recursive Method to Determine All Optimal Control Actions for Stochastic Program}{lemma.3}{}}
\@writefile{loa}{\contentsline {algorithm}{\numberline {2}{\ignorespaces STSolver\relax }}{6}{algorithm.2}}
\newlabel{alg:ST}{{2}{6}{STSolver\relax }{algorithm.2}{}}
\newlabel{EstimateMean}{{14}{6}{STSolver\relax }{algorithm.2}{}}
\@writefile{toc}{\contentsline {section}{\numberline {VI}Experimental Results}{6}{section.6}}
\@writefile{toc}{\contentsline {section}{References}{6}{section*.1}}
\bibcite{Nykvist2015}{7}
\bibcite{CA1.3GWStor}{8}
\bibcite{NJRESIP}{9}
\bibcite{gtmR2015Q3Stor}{10}
\bibcite{QRsimpleStorPes2012}{11}
\bibcite{MITrampStor}{12}
\bibcite{SuEGTPS}{13}
\bibcite{RLDSACC}{14}
\bibcite{BitarRACC_colocated}{15}
\bibcite{Powell}{16}
\bibcite{IBMload}{17}
\bibcite{DataCenter}{18}
\bibcite{StorDRLongbo}{19}
\bibcite{Xu2014}{20}
\bibcite{Qin2015}{21}
\bibcite{Neubauer2015}{22}
\bibcite{qin2012optimal}{23}
