\relax 
\citation{CASB350,EU2050,Jacobson2015}
\citation{Varaiya2011}
\citation{Hong2014}
\citation{Dunn2011}
\citation{Nykvist2015}
\citation{CA1.3GWStor}
\citation{NJRESIP}
\citation{gtmR2015Q3Stor}
\citation{QRsimpleStorPes2012}
\citation{MITrampStor}
\citation{MITrampStor}
\citation{Secomandi2010}
\citation{SuEGTPS,RLDSACC}
\citation{BitarRACC_colocated,Powell}
\citation{IBMload,DataCenter}
\citation{StorDRLongbo}
\@writefile{toc}{\contentsline {section}{\numberline {1}Introduction}{1}}
\@writefile{toc}{\contentsline {paragraph}{background:renewable and storage}{1}}
\@writefile{toc}{\contentsline {paragraph}{background:demand charge now and future}{1}}
\@writefile{toc}{\contentsline {paragraph}{literature}{1}}
\@writefile{toc}{\contentsline {paragraph}{contribution}{1}}
\@writefile{toc}{\contentsline {paragraph}{organization}{1}}
\@writefile{toc}{\contentsline {paragraph}{old materials}{1}}
\citation{XieEtAlWindStorMPC}
\citation{NRELStorValue2013}
\citation{Qin2014}
\citation{Lu2013}
\citation{Chau2015}
\citation{W99}
\citation{routing1,routing2,routing3}
\citation{routing3}
\citation{DJ12}
\citation{CHK15,BCGNN14,ACP14}
\citation{inventory1,inventory2,inventory3,inventory4}
\citation{BN09}
\citation{secretary}
\citation{decaysurvey}
\citation{pricing1,pricing2}
\@writefile{toc}{\contentsline {subsection}{\numberline {1.1}Related Literature}{2}}
\newlabel{sec:lit}{{1.1}{2}}
\@writefile{toc}{\contentsline {section}{\numberline {2}Problem Formulation}{2}}
\newlabel{stordyn}{{2}{3}}
\newlabel{obj}{{4}{3}}
\newlabel{P}{{5}{3}}
\@writefile{toc}{\contentsline {section}{\numberline {3}Constant Price Case}{3}}
\newlabel{thm:useless}{{1}{4}}
\@writefile{toc}{\contentsline {paragraph}{Why this result is intuitive}{4}}
\newlabel{corollary:flat}{{2}{4}}
\newlabel{u:flat}{{6}{4}}
\newlabel{CE}{{7}{4}}
\@writefile{toc}{\contentsline {paragraph}{Construction of optimal CE solution}{5}}
\@writefile{loa}{\contentsline {algorithm}{\numberline {1}{\ignorespaces Stochastic Peak Shaving\relax }}{5}}
\providecommand*\caption@xref[2]{\@setref\relax\@undefined{#1}}
\newlabel{improved}{{1}{5}}
\newlabel{EstimateMean}{{10}{5}}
\@writefile{toc}{\contentsline {section}{\numberline {4}Theorems}{5}}
\newlabel{lemma:monotone}{{6}{6}}
\bibstyle{IEEEtran}
\bibdata{BibTex}
