\relax 
\@writefile{toc}{\contentsline {section}{\numberline {1}Problem Formulation}{1}}
\newlabel{stordyn}{{2}{1}}
\newlabel{obj}{{4}{1}}
\newlabel{P}{{5}{2}}
\@writefile{toc}{\contentsline {section}{\numberline {2}Constant Price Case}{2}}
\newlabel{thm:useless}{{1}{2}}
\@writefile{toc}{\contentsline {paragraph}{Why this result is intuitive}{2}}
\newlabel{corollary:flat}{{2}{2}}
\newlabel{u:flat}{{6}{2}}
\newlabel{CE}{{7}{3}}
\@writefile{toc}{\contentsline {paragraph}{Construction of optimal CE solution}{3}}
\@writefile{toc}{\contentsline {section}{\numberline {3}Theorems}{3}}
\@writefile{loa}{\contentsline {algorithm}{\numberline {1}{\ignorespaces Improved Approximating SD Sampling\relax }}{4}}
\providecommand*\caption@xref[2]{\@setref\relax\@undefined{#1}}
\newlabel{improved}{{1}{4}}
\newlabel{EstimateMean}{{15}{4}}
\newlabel{lemma:monotone}{{6}{4}}
\bibstyle{IEEEtran}
\bibdata{BibTex}
