\relax 
\@writefile{toc}{\contentsline {section}{\numberline {1}Problem Formulation}{1}}
\newlabel{stordyn}{{1}{1}}
\newlabel{obj}{{3}{1}}
\citation{david1970order}
\@writefile{toc}{\contentsline {section}{\numberline {2}Optimal Solution}{2}}
\@writefile{toc}{\contentsline {section}{\numberline {3}Some Prelimenary Theorems}{2}}
\@writefile{toc}{\contentsline {section}{\numberline {4}Non i.i.d. Situation I}{3}}
\@writefile{toc}{\contentsline {section}{\numberline {5}Non i.i.d. Situation II}{4}}
\bibstyle{IEEEtran}
\bibdata{BibTex}
\bibcite{david1970order}{1}
\@writefile{toc}{\contentsline {section}{\numberline {6}Fixed Single Price, Pre-Determined Load Shape with i.i.d. Error Situation}{5}}
\@writefile{toc}{\contentsline {section}{\numberline {7}Time-Of-Use Price, i.i.d. Load Situation}{5}}
\@writefile{lof}{\contentsline {figure}{\numberline {1}{\ignorespaces Reward and maximum reward\relax }}{5}}
