\relax 
\providecommand\hyper@newdestlabel[2]{}
\providecommand\HyperFirstAtBeginDocument{\AtBeginDocument}
\HyperFirstAtBeginDocument{\ifx\hyper@anchor\@undefined
\global\let\oldcontentsline\contentsline
\gdef\contentsline#1#2#3#4{\oldcontentsline{#1}{#2}{#3}}
\global\let\oldnewlabel\newlabel
\gdef\newlabel#1#2{\newlabelxx{#1}#2}
\gdef\newlabelxx#1#2#3#4#5#6{\oldnewlabel{#1}{{#2}{#3}}}
\AtEndDocument{\ifx\hyper@anchor\@undefined
\let\contentsline\oldcontentsline
\let\newlabel\oldnewlabel
\fi}
\fi}
\global\let\hyper@last\relax 
\gdef\HyperFirstAtBeginDocument#1{#1}
\providecommand*\HyPL@Entry[1]{}
\citation{CASB350,EU2050,Jacobson2015}
\citation{Varaiya2011}
\citation{Hong2014}
\citation{Dunn2011}
\citation{Nykvist2015}
\citation{CA1.3GWStor}
\citation{NJRESIP}
\citation{gtmR2015Q3Stor}
\citation{QRsimpleStorPes2012}
\citation{MITrampStor}
\citation{MITrampStor}
\citation{Secomandi2010}
\citation{SuEGTPS,RLDSACC}
\citation{BitarRACC_colocated,Powell}
\citation{IBMload,DataCenter}
\citation{StorDRLongbo}
\HyPL@Entry{0<</S/D>>}
\@writefile{toc}{\contentsline {section}{\numberline {1}Introduction}{1}{section.1}}
\@writefile{toc}{\contentsline {paragraph}{background:renewable and storage}{1}{section*.1}}
\@writefile{toc}{\contentsline {paragraph}{background:demand charge now and future}{1}{section*.2}}
\@writefile{toc}{\contentsline {paragraph}{literature}{1}{section*.3}}
\@writefile{toc}{\contentsline {paragraph}{contribution}{1}{section*.4}}
\@writefile{toc}{\contentsline {paragraph}{organization}{1}{section*.5}}
\@writefile{toc}{\contentsline {paragraph}{old materials}{1}{section*.6}}
\citation{XieEtAlWindStorMPC}
\citation{NRELStorValue2013}
\citation{Qin2014}
\citation{Lu2013}
\citation{Chau2015}
\citation{W99}
\citation{routing1,routing2,routing3}
\citation{routing3}
\citation{DJ12}
\citation{CHK15,BCGNN14,ACP14}
\citation{inventory1,inventory2,inventory3,inventory4}
\citation{BN09}
\citation{secretary}
\citation{decaysurvey}
\citation{pricing1,pricing2}
\@writefile{toc}{\contentsline {subsection}{\numberline {1.1}Related Literature}{2}{subsection.1.1}}
\newlabel{sec:lit}{{1.1}{2}{Related Literature}{subsection.1.1}{}}
\@writefile{toc}{\contentsline {section}{\numberline {2}Problem Formulation}{2}{section.2}}
\newlabel{stordyn}{{2}{3}{Problem Formulation}{equation.2.2}{}}
\newlabel{obj}{{4}{3}{Problem Formulation}{equation.2.4}{}}
\newlabel{P}{{5}{3}{Problem Formulation}{equation.2.5}{}}
\@writefile{toc}{\contentsline {section}{\numberline {3}Constant Price Case}{3}{section.3}}
\newlabel{thm:useless}{{1}{4}{}{theorem.1}{}}
\@writefile{toc}{\contentsline {paragraph}{Why this result is intuitive}{4}{section*.7}}
\newlabel{corollary:flat}{{2}{4}{}{theorem.2}{}}
\newlabel{u:flat}{{6}{4}{}{equation.3.6}{}}
\newlabel{CE}{{7}{4}{Why this result is intuitive}{equation.3.7}{}}
\citation{david1970order}
\@writefile{toc}{\contentsline {paragraph}{Construction of optimal CE solution}{5}{section*.8}}
\@writefile{toc}{\contentsline {section}{\numberline {4}Optimal Solution}{5}{section.4}}
\@writefile{toc}{\contentsline {section}{\numberline {5}Some Prelimenary Theorems}{5}{section.5}}
\@writefile{toc}{\contentsline {section}{\numberline {6}Non i.i.d. Situation I}{7}{section.6}}
\bibstyle{IEEEtran}
\bibdata{refs.bib}
\bibcite{CASB350}{1}
\@writefile{toc}{\contentsline {section}{\numberline {7}Non i.i.d. Situation II}{8}{section.7}}
\@writefile{toc}{\contentsline {section}{\numberline {8}Fixed Single Price, Pre-Determined Load Shape with i.i.d. Error Situation}{8}{section.8}}
\@writefile{toc}{\contentsline {section}{\numberline {9}Time-Of-Use Price, i.i.d. Load Situation}{8}{section.9}}
\@writefile{lof}{\contentsline {figure}{\numberline {1}{\ignorespaces Reward and maximum reward\relax }}{8}{figure.caption.9}}
\bibcite{EU2050}{2}
\bibcite{Jacobson2015}{3}
\bibcite{Varaiya2011}{4}
\bibcite{Hong2014}{5}
\bibcite{Dunn2011}{6}
\bibcite{Nykvist2015}{7}
\bibcite{CA1.3GWStor}{8}
\bibcite{NJRESIP}{9}
\bibcite{gtmR2015Q3Stor}{10}
\bibcite{QRsimpleStorPes2012}{11}
\bibcite{MITrampStor}{12}
\bibcite{Secomandi2010}{13}
\bibcite{SuEGTPS}{14}
\bibcite{RLDSACC}{15}
\bibcite{BitarRACC_colocated}{16}
\bibcite{Powell}{17}
\bibcite{IBMload}{18}
\bibcite{DataCenter}{19}
\bibcite{StorDRLongbo}{20}
\bibcite{XieEtAlWindStorMPC}{21}
\bibcite{NRELStorValue2013}{22}
\bibcite{Qin2014}{23}
\bibcite{Lu2013}{24}
\bibcite{Chau2015}{25}
\bibcite{W99}{26}
\bibcite{routing1}{27}
\bibcite{routing2}{28}
\bibcite{routing3}{29}
\bibcite{DJ12}{30}
\bibcite{CHK15}{31}
\bibcite{BCGNN14}{32}
\bibcite{ACP14}{33}
\bibcite{inventory1}{34}
\bibcite{inventory2}{35}
\bibcite{inventory3}{36}
\bibcite{inventory4}{37}
\bibcite{BN09}{38}
\bibcite{secretary}{39}
\bibcite{decaysurvey}{40}
\bibcite{pricing1}{41}
\bibcite{pricing2}{42}
